{
	"origin":"https://gitlab.com/domezi/wp-ziegenhagel-careplus/-/raw/master/",
	"track":["adminbar.css","uninstall.php","ziegenhagel-careplus.php","update.json"],
	"untrack":[],
	"api": "api.ziegenhagel.com"
}
